<?xml version="1.0" encoding="UTF-8" standalone="no"?>
<!-- Created with Inkscape (http://www.inkscape.org/) -->

<svg
   xmlns:osb="http://www.openswatchbook.org/uri/2009/osb"
   xmlns:dc="http://purl.org/dc/elements/1.1/"
   xmlns:cc="http://creativecommons.org/ns#"
   xmlns:rdf="http://www.w3.org/1999/02/22-rdf-syntax-ns#"
   xmlns:svg="http://www.w3.org/2000/svg"
   xmlns="http://www.w3.org/2000/svg"
   xmlns:sodipodi="http://sodipodi.sourceforge.net/DTD/sodipodi-0.dtd"
   xmlns:inkscape="http://www.inkscape.org/namespaces/inkscape"
   width="287.9642mm"
   height="169.51852mm"
   viewBox="0 0 1020.3456 600.65618"
   id="svg2"
   version="1.1"
   inkscape:version="0.91 r13725"
   sodipodi:docname="dependencias.svg"
   inkscape:export-filename="/home/noit/DC/Orga2/tpfinal/images/dependencias2.png"
   inkscape:export-xdpi="90"
   inkscape:export-ydpi="90">
  <defs
     id="defs4">
    <linearGradient
       id="linearGradient4905"
       osb:paint="solid">
      <stop
         style="stop-color:#000000;stop-opacity:1;"
         offset="0"
         id="stop4907" />
    </linearGradient>
    <filter
       style="color-interpolation-filters:sRGB"
       inkscape:label="Drop Shadow"
       id="filter4911">
      <feFlood
         flood-opacity="1"
         flood-color="rgb(0,0,0)"
         result="flood"
         id="feFlood4913" />
      <feComposite
         in="flood"
         in2="SourceGraphic"
         operator="in"
         result="composite1"
         id="feComposite4915" />
      <feGaussianBlur
         in="composite1"
         stdDeviation="0"
         result="blur"
         id="feGaussianBlur4917" />
      <feOffset
         dx="6"
         dy="6"
         result="offset"
         id="feOffset4919" />
      <feComposite
         in="SourceGraphic"
         in2="offset"
         operator="over"
         result="composite2"
         id="feComposite4921" />
    </filter>
    <filter
       style="color-interpolation-filters:sRGB"
       inkscape:label="Drop Shadow"
       id="filter4911-9">
      <feFlood
         flood-opacity="1"
         flood-color="rgb(0,0,0)"
         result="flood"
         id="feFlood4913-1" />
      <feComposite
         in="flood"
         in2="SourceGraphic"
         operator="in"
         result="composite1"
         id="feComposite4915-5" />
      <feGaussianBlur
         in="composite1"
         stdDeviation="0"
         result="blur"
         id="feGaussianBlur4917-8" />
      <feOffset
         dx="6"
         dy="6"
         result="offset"
         id="feOffset4919-0" />
      <feComposite
         in="SourceGraphic"
         in2="offset"
         operator="over"
         result="composite2"
         id="feComposite4921-1" />
    </filter>
    <filter
       style="color-interpolation-filters:sRGB"
       inkscape:label="Drop Shadow"
       id="filter4911-99">
      <feFlood
         flood-opacity="1"
         flood-color="rgb(0,0,0)"
         result="flood"
         id="feFlood4913-6" />
      <feComposite
         in="flood"
         in2="SourceGraphic"
         operator="in"
         result="composite1"
         id="feComposite4915-57" />
      <feGaussianBlur
         in="composite1"
         stdDeviation="0"
         result="blur"
         id="feGaussianBlur4917-5" />
      <feOffset
         dx="6"
         dy="6"
         result="offset"
         id="feOffset4919-00" />
      <feComposite
         in="SourceGraphic"
         in2="offset"
         operator="over"
         result="composite2"
         id="feComposite4921-9" />
    </filter>
    <filter
       style="color-interpolation-filters:sRGB"
       inkscape:label="Drop Shadow"
       id="filter4911-99-5">
      <feFlood
         flood-opacity="1"
         flood-color="rgb(0,0,0)"
         result="flood"
         id="feFlood4913-6-9" />
      <feComposite
         in="flood"
         in2="SourceGraphic"
         operator="in"
         result="composite1"
         id="feComposite4915-57-6" />
      <feGaussianBlur
         in="composite1"
         stdDeviation="0"
         result="blur"
         id="feGaussianBlur4917-5-3" />
      <feOffset
         dx="6"
         dy="6"
         result="offset"
         id="feOffset4919-00-6" />
      <feComposite
         in="SourceGraphic"
         in2="offset"
         operator="over"
         result="composite2"
         id="feComposite4921-9-8" />
    </filter>
    <filter
       style="color-interpolation-filters:sRGB"
       inkscape:label="Drop Shadow"
       id="filter4911-99-9">
      <feFlood
         flood-opacity="1"
         flood-color="rgb(0,0,0)"
         result="flood"
         id="feFlood4913-6-5" />
      <feComposite
         in="flood"
         in2="SourceGraphic"
         operator="in"
         result="composite1"
         id="feComposite4915-57-2" />
      <feGaussianBlur
         in="composite1"
         stdDeviation="0"
         result="blur"
         id="feGaussianBlur4917-5-2" />
      <feOffset
         dx="6"
         dy="6"
         result="offset"
         id="feOffset4919-00-5" />
      <feComposite
         in="SourceGraphic"
         in2="offset"
         operator="over"
         result="composite2"
         id="feComposite4921-9-7" />
    </filter>
    <filter
       style="color-interpolation-filters:sRGB"
       inkscape:label="Drop Shadow"
       id="filter4911-99-6">
      <feFlood
         flood-opacity="1"
         flood-color="rgb(0,0,0)"
         result="flood"
         id="feFlood4913-6-1" />
      <feComposite
         in="flood"
         in2="SourceGraphic"
         operator="in"
         result="composite1"
         id="feComposite4915-57-8" />
      <feGaussianBlur
         in="composite1"
         stdDeviation="0"
         result="blur"
         id="feGaussianBlur4917-5-6" />
      <feOffset
         dx="6"
         dy="6"
         result="offset"
         id="feOffset4919-00-1" />
      <feComposite
         in="SourceGraphic"
         in2="offset"
         operator="over"
         result="composite2"
         id="feComposite4921-9-2" />
    </filter>
    <filter
       style="color-interpolation-filters:sRGB"
       inkscape:label="Drop Shadow"
       id="filter4911-99-0">
      <feFlood
         flood-opacity="1"
         flood-color="rgb(0,0,0)"
         result="flood"
         id="feFlood4913-6-3" />
      <feComposite
         in="flood"
         in2="SourceGraphic"
         operator="in"
         result="composite1"
         id="feComposite4915-57-7" />
      <feGaussianBlur
         in="composite1"
         stdDeviation="0"
         result="blur"
         id="feGaussianBlur4917-5-7" />
      <feOffset
         dx="6"
         dy="6"
         result="offset"
         id="feOffset4919-00-0" />
      <feComposite
         in="SourceGraphic"
         in2="offset"
         operator="over"
         result="composite2"
         id="feComposite4921-9-20" />
    </filter>
    <filter
       style="color-interpolation-filters:sRGB"
       inkscape:label="Drop Shadow"
       id="filter4911-99-6-1">
      <feFlood
         flood-opacity="1"
         flood-color="rgb(0,0,0)"
         result="flood"
         id="feFlood4913-6-1-0" />
      <feComposite
         in="flood"
         in2="SourceGraphic"
         operator="in"
         result="composite1"
         id="feComposite4915-57-8-7" />
      <feGaussianBlur
         in="composite1"
         stdDeviation="0"
         result="blur"
         id="feGaussianBlur4917-5-6-5" />
      <feOffset
         dx="6"
         dy="6"
         result="offset"
         id="feOffset4919-00-1-1" />
      <feComposite
         in="SourceGraphic"
         in2="offset"
         operator="over"
         result="composite2"
         id="feComposite4921-9-2-4" />
    </filter>
    <filter
       style="color-interpolation-filters:sRGB"
       inkscape:label="Drop Shadow"
       id="filter4911-99-6-3">
      <feFlood
         flood-opacity="1"
         flood-color="rgb(0,0,0)"
         result="flood"
         id="feFlood4913-6-1-2" />
      <feComposite
         in="flood"
         in2="SourceGraphic"
         operator="in"
         result="composite1"
         id="feComposite4915-57-8-9" />
      <feGaussianBlur
         in="composite1"
         stdDeviation="0"
         result="blur"
         id="feGaussianBlur4917-5-6-8" />
      <feOffset
         dx="6"
         dy="6"
         result="offset"
         id="feOffset4919-00-1-8" />
      <feComposite
         in="SourceGraphic"
         in2="offset"
         operator="over"
         result="composite2"
         id="feComposite4921-9-2-2" />
    </filter>
    <filter
       style="color-interpolation-filters:sRGB"
       inkscape:label="Drop Shadow"
       id="filter4911-99-6-7">
      <feFlood
         flood-opacity="1"
         flood-color="rgb(0,0,0)"
         result="flood"
         id="feFlood4913-6-1-3" />
      <feComposite
         in="flood"
         in2="SourceGraphic"
         operator="in"
         result="composite1"
         id="feComposite4915-57-8-1" />
      <feGaussianBlur
         in="composite1"
         stdDeviation="0"
         result="blur"
         id="feGaussianBlur4917-5-6-55" />
      <feOffset
         dx="6"
         dy="6"
         result="offset"
         id="feOffset4919-00-1-6" />
      <feComposite
         in="SourceGraphic"
         in2="offset"
         operator="over"
         result="composite2"
         id="feComposite4921-9-2-22" />
    </filter>
    <filter
       style="color-interpolation-filters:sRGB"
       inkscape:label="Drop Shadow"
       id="filter5301">
      <feFlood
         flood-opacity="1"
         flood-color="rgb(0,0,0)"
         result="flood"
         id="feFlood5303" />
      <feComposite
         in="flood"
         in2="SourceGraphic"
         operator="in"
         result="composite1"
         id="feComposite5305" />
      <feGaussianBlur
         in="composite1"
         stdDeviation="0"
         result="blur"
         id="feGaussianBlur5307" />
      <feOffset
         dx="6"
         dy="6"
         result="offset"
         id="feOffset5309" />
      <feComposite
         in="SourceGraphic"
         in2="offset"
         operator="over"
         result="composite2"
         id="feComposite5311" />
    </filter>
    <filter
       style="color-interpolation-filters:sRGB"
       inkscape:label="Drop Shadow"
       id="filter4911-99-6-1-9">
      <feFlood
         flood-opacity="1"
         flood-color="rgb(0,0,0)"
         result="flood"
         id="feFlood4913-6-1-0-4" />
      <feComposite
         in="flood"
         in2="SourceGraphic"
         operator="in"
         result="composite1"
         id="feComposite4915-57-8-7-1" />
      <feGaussianBlur
         in="composite1"
         stdDeviation="0"
         result="blur"
         id="feGaussianBlur4917-5-6-5-8" />
      <feOffset
         dx="6"
         dy="6"
         result="offset"
         id="feOffset4919-00-1-1-3" />
      <feComposite
         in="SourceGraphic"
         in2="offset"
         operator="over"
         result="composite2"
         id="feComposite4921-9-2-4-8" />
    </filter>
    <filter
       style="color-interpolation-filters:sRGB"
       inkscape:label="Drop Shadow"
       id="filter4911-99-9-4">
      <feFlood
         flood-opacity="1"
         flood-color="rgb(0,0,0)"
         result="flood"
         id="feFlood4913-6-5-4" />
      <feComposite
         in="flood"
         in2="SourceGraphic"
         operator="in"
         result="composite1"
         id="feComposite4915-57-2-4" />
      <feGaussianBlur
         in="composite1"
         stdDeviation="0"
         result="blur"
         id="feGaussianBlur4917-5-2-9" />
      <feOffset
         dx="6"
         dy="6"
         result="offset"
         id="feOffset4919-00-5-2" />
      <feComposite
         in="SourceGraphic"
         in2="offset"
         operator="over"
         result="composite2"
         id="feComposite4921-9-7-3" />
    </filter>
    <filter
       style="color-interpolation-filters:sRGB"
       inkscape:label="Drop Shadow"
       id="filter4911-99-6-9">
      <feFlood
         flood-opacity="1"
         flood-color="rgb(0,0,0)"
         result="flood"
         id="feFlood4913-6-1-4" />
      <feComposite
         in="flood"
         in2="SourceGraphic"
         operator="in"
         result="composite1"
         id="feComposite4915-57-8-8" />
      <feGaussianBlur
         in="composite1"
         stdDeviation="0"
         result="blur"
         id="feGaussianBlur4917-5-6-59" />
      <feOffset
         dx="6"
         dy="6"
         result="offset"
         id="feOffset4919-00-1-18" />
      <feComposite
         in="SourceGraphic"
         in2="offset"
         operator="over"
         result="composite2"
         id="feComposite4921-9-2-3" />
    </filter>
    <filter
       style="color-interpolation-filters:sRGB"
       inkscape:label="Drop Shadow"
       id="filter4911-99-0-6">
      <feFlood
         flood-opacity="1"
         flood-color="rgb(0,0,0)"
         result="flood"
         id="feFlood4913-6-3-7" />
      <feComposite
         in="flood"
         in2="SourceGraphic"
         operator="in"
         result="composite1"
         id="feComposite4915-57-7-7" />
      <feGaussianBlur
         in="composite1"
         stdDeviation="0"
         result="blur"
         id="feGaussianBlur4917-5-7-9" />
      <feOffset
         dx="6"
         dy="6"
         result="offset"
         id="feOffset4919-00-0-0" />
      <feComposite
         in="SourceGraphic"
         in2="offset"
         operator="over"
         result="composite2"
         id="feComposite4921-9-20-4" />
    </filter>
    <filter
       style="color-interpolation-filters:sRGB"
       inkscape:label="Drop Shadow"
       id="filter4911-99-0-6-7">
      <feFlood
         flood-opacity="1"
         flood-color="rgb(0,0,0)"
         result="flood"
         id="feFlood4913-6-3-7-6" />
      <feComposite
         in="flood"
         in2="SourceGraphic"
         operator="in"
         result="composite1"
         id="feComposite4915-57-7-7-1" />
      <feGaussianBlur
         in="composite1"
         stdDeviation="0"
         result="blur"
         id="feGaussianBlur4917-5-7-9-5" />
      <feOffset
         dx="6"
         dy="6"
         result="offset"
         id="feOffset4919-00-0-0-5" />
      <feComposite
         in="SourceGraphic"
         in2="offset"
         operator="over"
         result="composite2"
         id="feComposite4921-9-20-4-1" />
    </filter>
    <filter
       style="color-interpolation-filters:sRGB"
       inkscape:label="Drop Shadow"
       id="filter4911-99-0-6-7-9">
      <feFlood
         flood-opacity="1"
         flood-color="rgb(0,0,0)"
         result="flood"
         id="feFlood4913-6-3-7-6-8" />
      <feComposite
         in="flood"
         in2="SourceGraphic"
         operator="in"
         result="composite1"
         id="feComposite4915-57-7-7-1-5" />
      <feGaussianBlur
         in="composite1"
         stdDeviation="0"
         result="blur"
         id="feGaussianBlur4917-5-7-9-5-8" />
      <feOffset
         dx="6"
         dy="6"
         result="offset"
         id="feOffset4919-00-0-0-5-8" />
      <feComposite
         in="SourceGraphic"
         in2="offset"
         operator="over"
         result="composite2"
         id="feComposite4921-9-20-4-1-2" />
    </filter>
    <filter
       style="color-interpolation-filters:sRGB"
       inkscape:label="Drop Shadow"
       id="filter6254">
      <feFlood
         flood-opacity="1"
         flood-color="rgb(0,0,0)"
         result="flood"
         id="feFlood6256" />
      <feComposite
         in="flood"
         in2="SourceGraphic"
         operator="in"
         result="composite1"
         id="feComposite6258" />
      <feGaussianBlur
         in="composite1"
         stdDeviation="0"
         result="blur"
         id="feGaussianBlur6260" />
      <feOffset
         dx="6"
         dy="6"
         result="offset"
         id="feOffset6262" />
      <feComposite
         in="SourceGraphic"
         in2="offset"
         operator="over"
         result="composite2"
         id="feComposite6264" />
    </filter>
    <filter
       style="color-interpolation-filters:sRGB"
       inkscape:label="Drop Shadow"
       id="filter6254-7">
      <feFlood
         flood-opacity="1"
         flood-color="rgb(0,0,0)"
         result="flood"
         id="feFlood6256-2" />
      <feComposite
         in="flood"
         in2="SourceGraphic"
         operator="in"
         result="composite1"
         id="feComposite6258-2" />
      <feGaussianBlur
         in="composite1"
         stdDeviation="0"
         result="blur"
         id="feGaussianBlur6260-8" />
      <feOffset
         dx="6"
         dy="6"
         result="offset"
         id="feOffset6262-1" />
      <feComposite
         in="SourceGraphic"
         in2="offset"
         operator="over"
         result="composite2"
         id="feComposite6264-2" />
    </filter>
    <filter
       style="color-interpolation-filters:sRGB"
       inkscape:label="Drop Shadow"
       id="filter6254-1">
      <feFlood
         flood-opacity="1"
         flood-color="rgb(0,0,0)"
         result="flood"
         id="feFlood6256-0" />
      <feComposite
         in="flood"
         in2="SourceGraphic"
         operator="in"
         result="composite1"
         id="feComposite6258-8" />
      <feGaussianBlur
         in="composite1"
         stdDeviation="0"
         result="blur"
         id="feGaussianBlur6260-3" />
      <feOffset
         dx="6"
         dy="6"
         result="offset"
         id="feOffset6262-6" />
      <feComposite
         in="SourceGraphic"
         in2="offset"
         operator="over"
         result="composite2"
         id="feComposite6264-1" />
    </filter>
    <filter
       style="color-interpolation-filters:sRGB"
       inkscape:label="Drop Shadow"
       id="filter6254-3">
      <feFlood
         flood-opacity="1"
         flood-color="rgb(0,0,0)"
         result="flood"
         id="feFlood6256-6" />
      <feComposite
         in="flood"
         in2="SourceGraphic"
         operator="in"
         result="composite1"
         id="feComposite6258-0" />
      <feGaussianBlur
         in="composite1"
         stdDeviation="0"
         result="blur"
         id="feGaussianBlur6260-7" />
      <feOffset
         dx="6"
         dy="6"
         result="offset"
         id="feOffset6262-5" />
      <feComposite
         in="SourceGraphic"
         in2="offset"
         operator="over"
         result="composite2"
         id="feComposite6264-4" />
    </filter>
    <filter
       style="color-interpolation-filters:sRGB"
       inkscape:label="Drop Shadow"
       id="filter4911-99-9-4-7">
      <feFlood
         flood-opacity="1"
         flood-color="rgb(0,0,0)"
         result="flood"
         id="feFlood4913-6-5-4-8" />
      <feComposite
         in="flood"
         in2="SourceGraphic"
         operator="in"
         result="composite1"
         id="feComposite4915-57-2-4-1" />
      <feGaussianBlur
         in="composite1"
         stdDeviation="0"
         result="blur"
         id="feGaussianBlur4917-5-2-9-5" />
      <feOffset
         dx="6"
         dy="6"
         result="offset"
         id="feOffset4919-00-5-2-6" />
      <feComposite
         in="SourceGraphic"
         in2="offset"
         operator="over"
         result="composite2"
         id="feComposite4921-9-7-3-7" />
    </filter>
    <filter
       style="color-interpolation-filters:sRGB"
       inkscape:label="Drop Shadow"
       id="filter4911-99-9-4-73">
      <feFlood
         flood-opacity="1"
         flood-color="rgb(0,0,0)"
         result="flood"
         id="feFlood4913-6-5-4-3" />
      <feComposite
         in="flood"
         in2="SourceGraphic"
         operator="in"
         result="composite1"
         id="feComposite4915-57-2-4-0" />
      <feGaussianBlur
         in="composite1"
         stdDeviation="0"
         result="blur"
         id="feGaussianBlur4917-5-2-9-1" />
      <feOffset
         dx="6"
         dy="6"
         result="offset"
         id="feOffset4919-00-5-2-7" />
      <feComposite
         in="SourceGraphic"
         in2="offset"
         operator="over"
         result="composite2"
         id="feComposite4921-9-7-3-3" />
    </filter>
    <filter
       style="color-interpolation-filters:sRGB"
       inkscape:label="Drop Shadow"
       id="filter5098">
      <feFlood
         flood-opacity="1"
         flood-color="rgb(0,0,0)"
         result="flood"
         id="feFlood5100" />
      <feComposite
         in="flood"
         in2="SourceGraphic"
         operator="in"
         result="composite1"
         id="feComposite5102" />
      <feGaussianBlur
         in="composite1"
         stdDeviation="0"
         result="blur"
         id="feGaussianBlur5104" />
      <feOffset
         dx="6"
         dy="6"
         result="offset"
         id="feOffset5106" />
      <feComposite
         in="SourceGraphic"
         in2="offset"
         operator="over"
         result="composite2"
         id="feComposite5108" />
    </filter>
  </defs>
  <sodipodi:namedview
     id="base"
     pagecolor="#ffffff"
     bordercolor="#666666"
     borderopacity="1.0"
     inkscape:pageopacity="0.0"
     inkscape:pageshadow="2"
     inkscape:zoom="0.49497475"
     inkscape:cx="431.58594"
     inkscape:cy="710.33749"
     inkscape:document-units="px"
     inkscape:current-layer="layer2"
     showgrid="false"
     inkscape:window-width="1097"
     inkscape:window-height="1015"
     inkscape:window-x="0"
     inkscape:window-y="16"
     inkscape:window-maximized="0"
     fit-margin-top="0"
     fit-margin-left="0"
     fit-margin-right="0"
     fit-margin-bottom="0" />
  <metadata
     id="metadata7">
    <rdf:RDF>
      <cc:Work
         rdf:about="">
        <dc:format>image/svg+xml</dc:format>
        <dc:type
           rdf:resource="http://purl.org/dc/dcmitype/StillImage" />
        <dc:title></dc:title>
      </cc:Work>
    </rdf:RDF>
  </metadata>
  <g
     inkscape:groupmode="layer"
     id="layer5"
     inkscape:label="Shadows"
     transform="translate(330.89455,-67.250707)">
    <rect
       y="-382.74762"
       x="158.84108"
       height="64"
       width="32"
       id="rect5243-3"
       style="fill:#000000;fill-opacity:1;stroke:none;stroke-opacity:1"
       transform="matrix(0,1,-1,0,0,0)" />
    <rect
       y="197.50507"
       x="169.10153"
       height="64"
       width="32"
       id="rect5243-3-6"
       style="fill:#000000;fill-opacity:1;stroke:none;stroke-opacity:1" />
    <rect
       y="315.36218"
       x="168.38724"
       height="64"
       width="32"
       id="rect5243-3-5"
       style="fill:#000000;fill-opacity:1;stroke:none;stroke-opacity:1" />
    <rect
       y="433.21936"
       x="168.38725"
       height="64"
       width="32"
       id="rect5243-3-69"
       style="fill:#000000;fill-opacity:1;stroke:none;stroke-opacity:1" />
    <rect
       y="548.21936"
       x="168.38724"
       height="64"
       width="32"
       id="rect5243-3-9"
       style="fill:#000000;fill-opacity:1;stroke:none;stroke-opacity:1" />
    <rect
       y="-39.958672"
       x="159.65741"
       height="64"
       width="32"
       id="rect5243-3-6-8"
       style="fill:#000000;fill-opacity:1;stroke:none;stroke-opacity:1"
       transform="matrix(0,1,-1,0,0,0)" />
    <rect
       y="-42.584938"
       x="391.86725"
       height="64"
       width="32"
       id="rect5243-3-6-8-2"
       style="fill:#000000;fill-opacity:1;stroke:none;stroke-opacity:1"
       transform="matrix(0,1,-1,0,0,0)" />
    <rect
       y="-386.75183"
       x="275.85025"
       height="64"
       width="32"
       id="rect5243-3-6-8-2-3"
       style="fill:#000000;fill-opacity:1;stroke:none;stroke-opacity:1"
       transform="matrix(0,1,-1,0,0,0)" />
    <rect
       y="-386.56354"
       x="392.38995"
       height="64"
       width="32"
       id="rect5243-3-6-8-2-1"
       style="fill:#000000;fill-opacity:1;stroke:none;stroke-opacity:1"
       transform="matrix(0,1,-1,0,0,0)" />
    <rect
       y="-385.92548"
       x="509.30225"
       height="64"
       width="32"
       id="rect5243-3-6-8-2-9"
       style="fill:#000000;fill-opacity:1;stroke:none;stroke-opacity:1"
       transform="matrix(0,1,-1,0,0,0)" />
    <rect
       y="-42.38958"
       x="508.93475"
       height="64"
       width="32"
       id="rect5243-3-6-8-9"
       style="fill:#000000;fill-opacity:1;stroke:none;stroke-opacity:1"
       transform="matrix(0,1,-1,0,0,0)" />
    <rect
       y="312.89828"
       x="-173.75562"
       height="64"
       width="32"
       id="rect5243-3-6-9-4"
       style="fill:#000000;fill-opacity:1;stroke:none;stroke-opacity:1" />
    <rect
       y="318.93362"
       x="170.53011"
       height="64"
       width="32"
       id="rect5243-3-5-5"
       style="fill:#000000;fill-opacity:1;stroke:none;stroke-opacity:1" />
    <g
       id="g5042"
       transform="matrix(-1,0,0,1,17.774833,115.9837)">
      <rect
         style="fill:#000000;fill-opacity:1;stroke:none;stroke-opacity:1"
         id="rect5243-3-5-7"
         width="32"
         height="64"
         x="67.571434"
         y="335.36221" />
      <rect
         style="fill:#000000;fill-opacity:1;stroke:none;stroke-opacity:1"
         id="rect5243-3-5-7-2"
         width="31.242386"
         height="64"
         x="-92.461746"
         y="291.79077" />
      <rect
         transform="matrix(0,1,-1,0,0,0)"
         style="fill:#000000;fill-opacity:1;stroke:none;stroke-opacity:1"
         id="rect5243-3-5-7-9"
         width="32"
         height="162.03046"
         x="335.14285"
         y="-69.56871" />
    </g>
  </g>
  <g
     inkscape:groupmode="layer"
     id="layer2"
     inkscape:label="Blocks"
     transform="translate(330.89455,-67.250707)">
    <g
       id="g5330"
       transform="translate(10.815811,-11.428571)">
      <rect
         transform="matrix(0.82110358,0,0,1.2454781,-39.050487,19.923691)"
         y="108.07649"
         x="82.85714"
         height="42.857143"
         width="340"
         id="rect4903-0-8-7"
         style="fill:#009bd3;fill-opacity:1;stroke:none;stroke-opacity:1;filter:url(#filter4911-99-6-3)" />
      <flowRoot
         transform="translate(-103.03256,-204.39356)"
         style="font-style:normal;font-variant:normal;font-weight:normal;font-stretch:normal;font-size:40px;line-height:125%;font-family:'Latin Modern Roman';-inkscape-font-specification:'Latin Modern Roman, Normal';text-align:start;letter-spacing:0px;word-spacing:0px;writing-mode:lr-tb;text-anchor:start;fill:#000000;fill-opacity:1;stroke:none;stroke-width:1px;stroke-linecap:butt;stroke-linejoin:miter;stroke-opacity:1"
         id="flowRoot4831"
         xml:space="preserve"><flowRegion
           id="flowRegion4833"><rect
             y="359.50507"
             x="162.85715"
             height="77.14286"
             width="405.71429"
             id="rect4835"
             style="font-style:normal;font-variant:normal;font-weight:normal;font-stretch:normal;font-size:40px;line-height:125%;font-family:'Latin Modern Roman';-inkscape-font-specification:'Latin Modern Roman, Normal';text-align:start;writing-mode:lr-tb;text-anchor:start" /></flowRegion><flowPara
           id="flowPara4837">Block Cache</flowPara></flowRoot>    </g>
    <g
       id="g5379"
       transform="translate(10.815811,-22.223356)">
      <rect
         transform="matrix(0.82110358,0,0,1.2454781,-39.050487,147.35228)"
         y="108.07649"
         x="82.85714"
         height="42.857143"
         width="340"
         id="rect4903"
         style="fill:#009bd3;fill-opacity:1;stroke:none;stroke-opacity:1;filter:url(#filter4911)" />
      <flowRoot
         transform="translate(-67.306853,-41.530128)"
         style="font-style:normal;font-variant:normal;font-weight:normal;font-stretch:normal;font-size:40px;line-height:125%;font-family:'Latin Modern Roman';-inkscape-font-specification:'Latin Modern Roman, Normal';text-align:start;letter-spacing:0px;word-spacing:0px;writing-mode:lr-tb;text-anchor:start;fill:#000000;fill-opacity:1;stroke:none;stroke-width:1px;stroke-linecap:butt;stroke-linejoin:miter;stroke-opacity:1"
         id="flowRoot4847"
         xml:space="preserve"><flowRegion
           id="flowRegion4849"><rect
             y="323.79077"
             x="194.28572"
             height="64.285713"
             width="355.71429"
             id="rect4851"
             style="font-style:normal;font-variant:normal;font-weight:normal;font-stretch:normal;font-size:40px;line-height:125%;font-family:'Latin Modern Roman';-inkscape-font-specification:'Latin Modern Roman, Normal';text-align:start;writing-mode:lr-tb;text-anchor:start" /></flowRegion><flowPara
           id="flowPara4853">Ext2</flowPara></flowRoot>    </g>
    <g
       id="g5358"
       transform="translate(10.815811,-1.7857143)">
      <rect
         transform="matrix(0.82110358,0,0,1.2454781,-39.050487,243.46608)"
         y="108.07649"
         x="82.85714"
         height="42.857143"
         width="340"
         id="rect4903-0"
         style="fill:#009bd3;fill-opacity:1;stroke:none;stroke-opacity:1;filter:url(#filter4911-99)" />
      <flowRoot
         transform="translate(33.507444,-67.993749)"
         style="font-style:normal;font-variant:normal;font-weight:normal;font-stretch:normal;font-size:40px;line-height:125%;font-family:'Latin Modern Roman';-inkscape-font-specification:'Latin Modern Roman, Normal';text-align:start;letter-spacing:0px;word-spacing:0px;writing-mode:lr-tb;text-anchor:start;fill:#000000;fill-opacity:1;stroke:none;stroke-width:1px;stroke-linecap:butt;stroke-linejoin:miter;stroke-opacity:1"
         id="flowRoot4855"
         xml:space="preserve"><flowRegion
           id="flowRegion4857"><rect
             y="446.64792"
             x="112.85714"
             height="105.71429"
             width="347.14285"
             id="rect4859"
             style="font-style:normal;font-variant:normal;font-weight:normal;font-stretch:normal;font-size:40px;line-height:125%;font-family:'Latin Modern Roman';-inkscape-font-specification:'Latin Modern Roman, Normal';text-align:start;writing-mode:lr-tb;text-anchor:start" /></flowRegion><flowPara
           id="flowPara4861">IO</flowPara></flowRoot>    </g>
    <g
       id="g5365"
       transform="translate(10.815811,-43.571429)">
      <rect
         transform="matrix(0.82110358,0,0,1.2454781,-39.050487,402.2094)"
         y="108.07649"
         x="82.85714"
         height="42.857143"
         width="340"
         id="rect4903-0-32"
         style="fill:#009bd3;fill-opacity:1;stroke:none;stroke-opacity:1;filter:url(#filter4911-99-0)" />
      <flowRoot
         transform="translate(-46.969275,-72.107851)"
         style="font-style:normal;font-variant:normal;font-weight:normal;font-stretch:normal;font-size:40px;line-height:125%;font-family:'Latin Modern Roman';-inkscape-font-specification:'Latin Modern Roman, Normal';text-align:start;letter-spacing:0px;word-spacing:0px;writing-mode:lr-tb;text-anchor:start;fill:#000000;fill-opacity:1;stroke:none;stroke-width:1px;stroke-linecap:butt;stroke-linejoin:miter;stroke-opacity:1"
         id="flowRoot4863"
         xml:space="preserve"><flowRegion
           id="flowRegion4865"><rect
             y="609.50507"
             x="117.14286"
             height="85.714287"
             width="302.85715"
             id="rect4867"
             style="font-style:normal;font-variant:normal;font-weight:normal;font-stretch:normal;font-size:40px;line-height:125%;font-family:'Latin Modern Roman';-inkscape-font-specification:'Latin Modern Roman, Normal';text-align:start;writing-mode:lr-tb;text-anchor:start" /></flowRegion><flowPara
           id="flowPara4869">Commands</flowPara></flowRoot>    </g>
    <g
       id="g5372"
       transform="translate(10.815811,-55.053314)">
      <rect
         transform="matrix(0.82110358,0,0,1.2454781,-39.050487,529.63793)"
         y="108.07649"
         x="82.85714"
         height="42.857143"
         width="340"
         id="rect4903-0-4"
         style="fill:#009bd3;fill-opacity:1;stroke:none;stroke-opacity:1;filter:url(#filter4911-99-5)" />
      <flowRoot
         transform="translate(18.529162,-77.53479)"
         style="font-style:normal;font-variant:normal;font-weight:normal;font-stretch:normal;font-size:40px;line-height:125%;font-family:'Latin Modern Roman';-inkscape-font-specification:'Latin Modern Roman, Normal';text-align:start;letter-spacing:0px;word-spacing:0px;writing-mode:lr-tb;text-anchor:start;fill:#000000;fill-opacity:1;stroke:none;stroke-width:1px;stroke-linecap:butt;stroke-linejoin:miter;stroke-opacity:1"
         id="flowRoot4871"
         xml:space="preserve"><flowRegion
           id="flowRegion4873"><rect
             y="742.36218"
             x="107.14286"
             height="88.571426"
             width="428.57144"
             id="rect4875"
             style="font-style:normal;font-variant:normal;font-weight:normal;font-stretch:normal;font-size:40px;line-height:125%;font-family:'Latin Modern Roman';-inkscape-font-specification:'Latin Modern Roman, Normal';text-align:start;writing-mode:lr-tb;text-anchor:start" /></flowRegion><flowPara
           id="flowPara4877">Shell</flowPara></flowRoot>    </g>
    <g
       id="g5337"
       transform="translate(1.9459654,-11.428571)">
      <rect
         transform="matrix(0.82110358,0,0,1.2454781,312.37808,19.923691)"
         y="108.07649"
         x="82.85714"
         height="42.857143"
         width="340"
         id="rect4903-0-8-75"
         style="fill:#009bd3;fill-opacity:1;stroke:none;stroke-opacity:1;filter:url(#filter4911-99-6-7)" />
      <flowRoot
         transform="translate(-56.501177,-110.10645)"
         style="font-style:normal;font-variant:normal;font-weight:normal;font-stretch:normal;font-size:40px;line-height:125%;font-family:'Latin Modern Roman';-inkscape-font-specification:'Latin Modern Roman, Normal';text-align:start;letter-spacing:0px;word-spacing:0px;writing-mode:lr-tb;text-anchor:start;fill:#000000;fill-opacity:1;stroke:none;stroke-width:1px;stroke-linecap:butt;stroke-linejoin:miter;stroke-opacity:1"
         id="flowRoot4879"
         xml:space="preserve"><flowRegion
           id="flowRegion4881"><rect
             y="265.21936"
             x="531.42859"
             height="82.85714"
             width="171.42857"
             id="rect4883"
             style="font-style:normal;font-variant:normal;font-weight:normal;font-stretch:normal;font-size:40px;line-height:125%;font-family:'Latin Modern Roman';-inkscape-font-specification:'Latin Modern Roman, Normal';text-align:start;writing-mode:lr-tb;text-anchor:start" /></flowRegion><flowPara
           id="flowPara4885">HDD</flowPara></flowRoot>    </g>
    <g
       id="g5323"
       transform="translate(-331.96083,116.00002)">
      <rect
         transform="matrix(0.82110358,0,0,1.2454781,-39.05048,-107.5049)"
         y="108.07649"
         x="82.85714"
         height="42.857143"
         width="340"
         id="rect4903-0-8-9"
         style="fill:#009bd3;fill-opacity:1;stroke:none;stroke-opacity:1;filter:url(#filter4911-99-6-1-9)" />
      <flowRoot
         transform="translate(-135.93544,-70.392464)"
         style="font-style:normal;font-variant:normal;font-weight:normal;font-stretch:normal;font-size:40px;line-height:125%;font-family:'Latin Modern Roman';-inkscape-font-specification:'Latin Modern Roman, Normal';text-align:start;letter-spacing:0px;word-spacing:0px;writing-mode:lr-tb;text-anchor:start;fill:#000000;fill-opacity:1;stroke:none;stroke-width:1px;stroke-linecap:butt;stroke-linejoin:miter;stroke-opacity:1"
         id="flowRoot4839"
         xml:space="preserve"><flowRegion
           id="flowRegion4841"><rect
             y="98.076492"
             x="230"
             height="68.571426"
             width="472.85715"
             id="rect4843"
             style="font-style:normal;font-variant:normal;font-weight:normal;font-stretch:normal;font-size:40px;line-height:125%;font-family:'Latin Modern Roman';-inkscape-font-specification:'Latin Modern Roman, Normal';text-align:start;writing-mode:lr-tb;text-anchor:start" /></flowRegion><flowPara
           id="flowPara4845">KMalloc</flowPara></flowRoot>    </g>
    <g
       id="g5351"
       transform="translate(-683.3894,-149.65189)">
      <rect
         transform="matrix(0.82110358,0,0,1.2454781,312.37809,274.78081)"
         y="108.07649"
         x="82.85714"
         height="42.857143"
         width="340"
         id="rect4903-0-8"
         style="fill:#009bd3;fill-opacity:1;stroke:none;stroke-opacity:1;filter:url(#filter4911-99-6-9)" />
      <flowRoot
         transform="translate(272.88008,-223.41644)"
         style="font-style:normal;font-variant:normal;font-weight:normal;font-stretch:normal;font-size:40px;line-height:125%;font-family:'Latin Modern Roman';-inkscape-font-specification:'Latin Modern Roman, Normal';text-align:start;letter-spacing:0px;word-spacing:0px;writing-mode:lr-tb;text-anchor:start;fill:#000000;fill-opacity:1;stroke:none;stroke-width:1px;stroke-linecap:butt;stroke-linejoin:miter;stroke-opacity:1"
         id="flowRoot4895"
         xml:space="preserve"><flowRegion
           id="flowRegion4897"><rect
             y="629.50507"
             x="161.42857"
             height="52.857143"
             width="315.71429"
             id="rect4899"
             style="font-style:normal;font-variant:normal;font-weight:normal;font-stretch:normal;font-size:40px;line-height:125%;font-family:'Latin Modern Roman';-inkscape-font-specification:'Latin Modern Roman, Normal';text-align:start;writing-mode:lr-tb;text-anchor:start" /></flowRegion><flowPara
           id="flowPara4901">Keyboard</flowPara></flowRoot>    </g>
    <rect
       style="fill:#d30000;fill-opacity:1;stroke:none;stroke-opacity:1;filter:url(#filter4911-99-0-6)"
       id="rect4903-0-32-4"
       width="340"
       height="42.857143"
       x="82.85714"
       y="108.07649"
       transform="matrix(0.82110358,0,0,1.2454781,314.32405,125.12892)" />
    <flowRoot
       xml:space="preserve"
       id="flowRoot4863-4"
       style="font-style:normal;font-variant:normal;font-weight:normal;font-stretch:normal;font-size:40px;line-height:125%;font-family:'Latin Modern Roman';-inkscape-font-specification:'Latin Modern Roman, Normal';text-align:start;letter-spacing:0px;word-spacing:0px;writing-mode:lr-tb;text-anchor:start;fill:#000000;fill-opacity:1;stroke:none;stroke-width:1px;stroke-linecap:butt;stroke-linejoin:miter;stroke-opacity:1"
       transform="translate(373.87307,-348.96833)"><flowRegion
         id="flowRegion4865-8"><rect
           id="rect4867-8"
           width="302.85715"
           height="85.714287"
           x="117.14286"
           y="609.50507"
           style="font-style:normal;font-variant:normal;font-weight:normal;font-stretch:normal;font-size:40px;line-height:125%;font-family:'Latin Modern Roman';-inkscape-font-specification:'Latin Modern Roman, Normal';text-align:start;writing-mode:lr-tb;text-anchor:start" /></flowRegion><flowPara
         id="flowPara4869-4">fs.h</flowPara></flowRoot>    <rect
       style="fill:#d30000;fill-opacity:1;stroke:none;stroke-opacity:1;filter:url(#filter4911-99-0-6-7)"
       id="rect4903-0-32-4-9"
       width="340"
       height="42.857143"
       x="82.85714"
       y="108.07649"
       transform="matrix(0.82110358,0,0,1.2454781,314.32405,241.68037)" />
    <rect
       style="fill:#d30000;fill-opacity:1;stroke:none;stroke-opacity:1;filter:url(#filter4911-99-0-6-7-9)"
       id="rect4903-0-32-4-9-1"
       width="340"
       height="42.857143"
       x="82.85714"
       y="108.07649"
       transform="matrix(0.82110358,0,0,1.2454781,314.32405,358.63797)" />
    <flowRoot
       xml:space="preserve"
       id="flowRoot4863-4-0"
       style="font-style:normal;font-variant:normal;font-weight:normal;font-stretch:normal;font-size:40px;line-height:125%;font-family:'Latin Modern Roman';-inkscape-font-specification:'Latin Modern Roman, Normal';text-align:start;letter-spacing:0px;word-spacing:0px;writing-mode:lr-tb;text-anchor:start;fill:#000000;fill-opacity:1;stroke:none;stroke-width:1px;stroke-linecap:butt;stroke-linejoin:miter;stroke-opacity:1"
       transform="translate(336.95214,-236.29688)"><flowRegion
         id="flowRegion4865-8-4"><rect
           id="rect4867-8-2"
           width="302.85715"
           height="85.714287"
           x="117.14286"
           y="609.50507"
           style="font-style:normal;font-variant:normal;font-weight:normal;font-stretch:normal;font-size:40px;line-height:125%;font-family:'Latin Modern Roman';-inkscape-font-specification:'Latin Modern Roman, Normal';text-align:start;writing-mode:lr-tb;text-anchor:start" /></flowRegion><flowPara
         id="flowPara4869-4-8">Syscalls</flowPara></flowRoot>    <flowRoot
       xml:space="preserve"
       id="flowRoot4863-4-0-8"
       style="font-style:normal;font-variant:normal;font-weight:normal;font-stretch:normal;font-size:40px;line-height:125%;font-family:'Latin Modern Roman';-inkscape-font-specification:'Latin Modern Roman, Normal';text-align:start;letter-spacing:0px;word-spacing:0px;writing-mode:lr-tb;text-anchor:start;fill:#000000;fill-opacity:1;stroke:none;stroke-width:1px;stroke-linecap:butt;stroke-linejoin:miter;stroke-opacity:1"
       transform="translate(311.09776,-119.33928)"><flowRegion
         id="flowRegion4865-8-4-2"><rect
           id="rect4867-8-2-4"
           width="451.34958"
           height="97.836128"
           x="117.14286"
           y="609.50507"
           style="font-style:normal;font-variant:normal;font-weight:normal;font-stretch:normal;font-size:40px;line-height:125%;font-family:'Latin Modern Roman';-inkscape-font-specification:'Latin Modern Roman, Normal';text-align:start;writing-mode:lr-tb;text-anchor:start" /></flowRegion><flowPara
         id="flowPara4869-4-8-9">int main(,)</flowPara></flowRoot>    <text
       xml:space="preserve"
       style="font-style:normal;font-variant:normal;font-weight:normal;font-stretch:normal;font-size:40px;line-height:125%;font-family:'Droid Sans Mono';-inkscape-font-specification:'Droid Sans Mono, Normal';text-align:start;letter-spacing:0px;word-spacing:0px;writing-mode:lr-tb;text-anchor:start;fill:#000000;fill-opacity:1;stroke:none;stroke-width:1px;stroke-linecap:butt;stroke-linejoin:miter;stroke-opacity:1"
       x="523.25903"
       y="773.56012"
       id="text6248"
       sodipodi:linespacing="125%"><tspan
         sodipodi:role="line"
         id="tspan6250"
         x="523.25903"
         y="773.56012" /></text>
    <g
       id="g5344-4"
       transform="translate(-683.38939,211.28569)">
      <rect
         transform="matrix(0.82110358,0,0,1.2454781,312.37808,147.35228)"
         y="108.07649"
         x="82.85714"
         height="42.857143"
         width="340"
         id="rect4903-0-3-6"
         style="fill:#009bd3;fill-opacity:1;stroke:none;stroke-opacity:1;filter:url(#filter4911-99-9-4-7)" />
      <flowRoot
         transform="translate(170.98773,-85.535284)"
         style="font-style:normal;font-variant:normal;font-weight:normal;font-stretch:normal;font-size:40px;line-height:125%;font-family:'Latin Modern Roman';-inkscape-font-specification:'Latin Modern Roman, Normal';text-align:start;letter-spacing:0px;word-spacing:0px;writing-mode:lr-tb;text-anchor:start;fill:#000000;fill-opacity:1;stroke:none;stroke-width:1px;stroke-linecap:butt;stroke-linejoin:miter;stroke-opacity:1"
         id="flowRoot4887-2"
         xml:space="preserve"><flowRegion
           id="flowRegion4889-9"><rect
             y="368.07648"
             x="288.57144"
             height="50"
             width="405.71429"
             id="rect4891-8"
             style="font-style:normal;font-variant:normal;font-weight:normal;font-stretch:normal;font-size:40px;line-height:125%;font-family:'Latin Modern Roman';-inkscape-font-specification:'Latin Modern Roman, Normal';text-align:start;writing-mode:lr-tb;text-anchor:start" /></flowRegion><flowPara
           id="flowPara4893-4">Loader</flowPara><flowPara
           id="flowPara4176" /></flowRoot>    </g>
    <g
       id="g5344-6"
       transform="translate(-683.3894,94.328086)">
      <rect
         transform="matrix(0.82110358,0,0,1.2454781,312.37808,147.35228)"
         y="108.07649"
         x="82.85714"
         height="42.857143"
         width="340"
         id="rect4903-0-3-3"
         style="fill:#009bd3;fill-opacity:1;stroke:none;stroke-opacity:1;filter:url(#filter4911-99-9-4-73)" />
      <flowRoot
         transform="translate(174.0218,-85.535284)"
         style="font-style:normal;font-variant:normal;font-weight:normal;font-stretch:normal;font-size:40px;line-height:125%;font-family:'Latin Modern Roman';-inkscape-font-specification:'Latin Modern Roman, Normal';text-align:start;letter-spacing:0px;word-spacing:0px;writing-mode:lr-tb;text-anchor:start;fill:#000000;fill-opacity:1;stroke:none;stroke-width:1px;stroke-linecap:butt;stroke-linejoin:miter;stroke-opacity:1"
         id="flowRoot4887-3"
         xml:space="preserve"><flowRegion
           id="flowRegion4889-5"><rect
             y="368.07648"
             x="288.57144"
             height="50"
             width="405.71429"
             id="rect4891-0"
             style="font-style:normal;font-variant:normal;font-weight:normal;font-stretch:normal;font-size:40px;line-height:125%;font-family:'Latin Modern Roman';-inkscape-font-specification:'Latin Modern Roman, Normal';text-align:start;writing-mode:lr-tb;text-anchor:start" /></flowRegion><flowPara
           id="flowPara4893-7">Screen</flowPara></flowRoot>    </g>
    <g
       id="g6446"
       transform="translate(-284.87608,138.83445)">
      <rect
         transform="matrix(0,1,-1,0,0,0)"
         style="fill:#000000;fill-opacity:1;stroke:none;stroke-opacity:1"
         id="rect5243-3-6-8-6"
         width="32"
         height="64"
         x="-66.569008"
         y="-329.59943" />
      <g
         id="g5492-2-3"
         transform="matrix(-1,0,0,1,452.12047,-151.15268)">
        <g
           transform="matrix(0,1,-1,0,270.69401,-72.591637)"
           id="g5692-59">
          <rect
             y="79.408295"
             x="152.57143"
             height="64"
             width="32"
             id="rect5243-34-7"
             style="fill:#00d39b;fill-opacity:1;stroke:none;stroke-opacity:1" />
          <g
             transform="matrix(0.49999999,0,0,-1,-75.408288,763.36299)"
             id="g5466-5-1">
            <path
               sodipodi:type="star"
               style="fill:#000000;fill-opacity:1;stroke:none;stroke-opacity:1"
               id="path5292-2-1"
               sodipodi:sides="3"
               sodipodi:cx="442.9519"
               sodipodi:cy="655.40851"
               sodipodi:r1="26.623775"
               sodipodi:r2="13.311889"
               sodipodi:arg1="0.52359878"
               sodipodi:arg2="1.5707963"
               inkscape:flatsided="true"
               inkscape:rounded="0"
               inkscape:randomized="0"
               d="m 466.00877,668.7204 -46.11373,0 23.05686,-39.93567 z"
               inkscape:transform-center-y="-2.6666646"
               transform="matrix(0.69393648,0,0,0.4006444,180.57896,375.65681)" />
            <rect
               style="fill:#000000;fill-opacity:1;stroke:none;stroke-opacity:1"
               id="rect5294-1-09"
               width="16"
               height="33"
               x="479.95944"
               y="643.3335" />
          </g>
        </g>
      </g>
    </g>
    <flowRoot
       xml:space="preserve"
       id="flowRoot6463"
       style="font-style:normal;font-variant:normal;font-weight:normal;font-stretch:normal;font-size:30px;line-height:125%;font-family:'Latin Modern Roman';-inkscape-font-specification:'Latin Modern Roman, Normal';text-align:start;letter-spacing:0px;word-spacing:0px;writing-mode:lr-tb;text-anchor:start;fill:#000000;fill-opacity:1;stroke:none;stroke-width:1px;stroke-linecap:butt;stroke-linejoin:miter;stroke-opacity:1"
       transform="translate(51.547511,264.7552)"><flowRegion
         id="flowRegion6465"><rect
           id="rect6467"
           width="381.83768"
           height="105.05586"
           x="343.45187"
           y="-198.20665"
           style="font-style:normal;font-variant:normal;font-weight:normal;font-stretch:normal;font-size:30px;line-height:125%;font-family:'Latin Modern Roman';-inkscape-font-specification:'Latin Modern Roman, Normal';text-align:start;writing-mode:lr-tb;text-anchor:start" /></flowRegion><flowPara
         id="flowPara6469">Interfaz</flowPara></flowRoot>    <flowRoot
       xml:space="preserve"
       id="flowRoot6471"
       style="font-style:normal;font-variant:normal;font-weight:normal;font-stretch:normal;font-size:30px;line-height:125%;font-family:'Latin Modern Roman';-inkscape-font-specification:'Latin Modern Roman, Normal';text-align:start;letter-spacing:0px;word-spacing:0px;writing-mode:lr-tb;text-anchor:start;fill:#000000;fill-opacity:1;stroke:none;stroke-width:1px;stroke-linecap:butt;stroke-linejoin:miter;stroke-opacity:1"
       transform="translate(405.69278,128.50536)"><flowRegion
         id="flowRegion6473"><rect
           id="rect6475"
           width="446.48743"
           height="66.670067"
           x="-351.53308"
           y="-64.866508"
           style="font-style:normal;font-variant:normal;font-weight:normal;font-stretch:normal;font-size:30px;line-height:125%;font-family:'Latin Modern Roman';-inkscape-font-specification:'Latin Modern Roman, Normal';text-align:start;writing-mode:lr-tb;text-anchor:start" /></flowRegion><flowPara
         id="flowPara6477">Dependencia de</flowPara></flowRoot>    <flowRoot
       xml:space="preserve"
       id="flowRoot6479"
       style="font-style:normal;font-variant:normal;font-weight:normal;font-stretch:normal;font-size:30px;line-height:125%;font-family:'Latin Modern Roman';-inkscape-font-specification:'Latin Modern Roman, Normal';text-align:start;letter-spacing:0px;word-spacing:0px;writing-mode:lr-tb;text-anchor:start;fill:#000000;fill-opacity:1;stroke:none;stroke-width:1px;stroke-linecap:butt;stroke-linejoin:miter;stroke-opacity:1"
       transform="translate(115.82044,112.46462)"><flowRegion
         id="flowRegion6481"><rect
           id="rect6483"
           width="268.70059"
           height="62.629459"
           x="478.81232"
           y="-46.683765"
           style="font-style:normal;font-variant:normal;font-weight:normal;font-stretch:normal;font-size:30px;line-height:125%;font-family:'Latin Modern Roman';-inkscape-font-specification:'Latin Modern Roman, Normal';text-align:start;writing-mode:lr-tb;text-anchor:start" /></flowRegion><flowPara
         id="flowPara6485">Objeto</flowPara></flowRoot>    <g
       id="g5134"
       transform="translate(276.17582,2.313889)">
      <rect
         y="-311.28574"
         x="70.101532"
         height="64"
         width="32"
         id="rect5243-3-6-8-6-62"
         style="fill:#000000;fill-opacity:1;stroke:none;stroke-opacity:1"
         transform="matrix(0,1,-1,0,0,0)" />
      <rect
         y="65.197701"
         x="242.81944"
         height="32"
         width="64"
         id="rect6252-2"
         style="fill:#009bd3;fill-opacity:1;stroke:none;stroke-opacity:1" />
    </g>
    <g
       id="g5138"
       transform="translate(73.87361,71.582539)">
      <rect
         y="-310.92859"
         x="0.53919262"
         height="64"
         width="32"
         id="rect5243-3-6-8-6-6"
         style="fill:#000000;fill-opacity:1;stroke:none;stroke-opacity:1"
         transform="matrix(0,1,-1,0,0,0)" />
      <rect
         y="-3.7772593"
         x="242.81944"
         height="32"
         width="64"
         id="rect6252-8"
         style="fill:#d30000;fill-opacity:1;stroke:none;stroke-opacity:1" />
    </g>
    <g
       id="g6437"
       transform="translate(-87.887404,281.1397)">
      <rect
         transform="matrix(0,1,-1,0,0,0)"
         style="fill:#000000;fill-opacity:1;stroke:none;stroke-opacity:1"
         id="rect5243-3-6-8-2-3-9"
         width="32"
         height="64"
         x="-208.46339"
         y="147.3203" />
      <g
         id="g5492-2-1-3"
         transform="matrix(-1,0,0,1,-25.554,-293.86878)">
        <g
           transform="matrix(0,1,-1,0,270.69401,-72.591637)"
           id="g5692-6-9">
          <rect
             y="79.408295"
             x="152.57143"
             height="64"
             width="32"
             id="rect5243-34-9-95"
             style="fill:#d39b00;fill-opacity:1;stroke:none;stroke-opacity:1" />
          <g
             transform="matrix(0.49999999,0,0,-1,-75.408288,763.36299)"
             id="g5466-5-5-4">
            <path
               sodipodi:type="star"
               style="fill:#000000;fill-opacity:1;stroke:none;stroke-opacity:1"
               id="path5292-2-2-8"
               sodipodi:sides="3"
               sodipodi:cx="442.9519"
               sodipodi:cy="655.40851"
               sodipodi:r1="26.623775"
               sodipodi:r2="13.311889"
               sodipodi:arg1="0.52359878"
               sodipodi:arg2="1.5707963"
               inkscape:flatsided="true"
               inkscape:rounded="0"
               inkscape:randomized="0"
               d="m 466.00877,668.7204 -46.11373,0 23.05686,-39.93567 z"
               inkscape:transform-center-y="-2.6666646"
               transform="matrix(0.69393648,0,0,0.4006444,180.57896,375.65681)" />
            <rect
               style="fill:#000000;fill-opacity:1;stroke:none;stroke-opacity:1"
               id="rect5294-1-0-4"
               width="16"
               height="33"
               x="479.95944"
               y="643.3335" />
          </g>
        </g>
      </g>
    </g>
    <flowRoot
       xml:space="preserve"
       id="flowRoot6455"
       style="font-style:normal;font-variant:normal;font-weight:normal;font-stretch:normal;font-size:30px;line-height:125%;font-family:'Latin Modern Roman';-inkscape-font-specification:'Latin Modern Roman, Normal';text-align:start;letter-spacing:0px;word-spacing:0px;writing-mode:lr-tb;text-anchor:start;fill:#000000;fill-opacity:1;stroke:none;stroke-width:1px;stroke-linecap:butt;stroke-linejoin:miter;stroke-opacity:1"
       transform="translate(-68.537085,308.41942)"><flowRegion
         id="flowRegion6457"><rect
           id="rect6459"
           width="605.71429"
           height="208.57143"
           x="-157.14285"
           y="-244.78065"
           style="font-style:normal;font-variant:normal;font-weight:normal;font-stretch:normal;font-size:30px;line-height:125%;font-family:'Latin Modern Roman';-inkscape-font-specification:'Latin Modern Roman, Normal';text-align:start;writing-mode:lr-tb;text-anchor:start" /></flowRegion><flowPara
         id="flowPara6461">Implementa</flowPara></flowRoot>  </g>
  <g
     inkscape:groupmode="layer"
     id="layer4"
     inkscape:label="Arrows"
     transform="translate(330.89455,-67.250707)">
    <g
       id="g5492"
       transform="matrix(0,1,-1,0,462.15592,1.2194153)">
      <rect
         y="79.408295"
         x="152.57143"
         height="64"
         width="32"
         id="rect5243"
         style="fill:#00d39b;fill-opacity:1;stroke:none;stroke-opacity:1" />
      <g
         transform="matrix(0.49999999,0,0,-1,-75.408288,763.36299)"
         id="g5466">
        <path
           sodipodi:type="star"
           style="fill:#000000;fill-opacity:1;stroke:none;stroke-opacity:1"
           id="path5292"
           sodipodi:sides="3"
           sodipodi:cx="442.9519"
           sodipodi:cy="655.40851"
           sodipodi:r1="26.623775"
           sodipodi:r2="13.311889"
           sodipodi:arg1="0.52359878"
           sodipodi:arg2="1.5707963"
           inkscape:flatsided="true"
           inkscape:rounded="0"
           inkscape:randomized="0"
           d="m 466.00877,668.7204 -46.11373,0 23.05686,-39.93567 z"
           inkscape:transform-center-y="-2.6666646"
           transform="matrix(0.69393648,0,0,0.4006444,180.57896,375.65681)" />
        <rect
           style="fill:#000000;fill-opacity:1;stroke:none;stroke-opacity:1"
           id="rect5294"
           width="16"
           height="33"
           x="479.95944"
           y="643.3335" />
      </g>
    </g>
    <g
       transform="translate(10.815813,116.35254)"
       id="g5492-7">
      <rect
         y="79.408295"
         x="152.57143"
         height="64"
         width="32"
         id="rect5243-1"
         style="fill:#00d39b;fill-opacity:1;stroke:none;stroke-opacity:1" />
      <g
         transform="matrix(0.49999999,0,0,-1,-75.408288,763.36299)"
         id="g5466-0">
        <path
           sodipodi:type="star"
           style="fill:#000000;fill-opacity:1;stroke:none;stroke-opacity:1"
           id="path5292-1"
           sodipodi:sides="3"
           sodipodi:cx="442.9519"
           sodipodi:cy="655.40851"
           sodipodi:r1="26.623775"
           sodipodi:r2="13.311889"
           sodipodi:arg1="0.52359878"
           sodipodi:arg2="1.5707963"
           inkscape:flatsided="true"
           inkscape:rounded="0"
           inkscape:randomized="0"
           d="m 466.00877,668.7204 -46.11373,0 23.05686,-39.93567 z"
           inkscape:transform-center-y="-2.6666646"
           transform="matrix(0.69393648,0,0,0.4006444,180.57896,375.65681)" />
        <rect
           style="fill:#000000;fill-opacity:1;stroke:none;stroke-opacity:1"
           id="rect5294-2"
           width="16"
           height="33"
           x="479.95944"
           y="643.3335" />
      </g>
    </g>
    <g
       transform="translate(10.225574,233.48999)"
       id="g5492-7-9">
      <rect
         y="79.408295"
         x="152.57143"
         height="64"
         width="32"
         id="rect5243-1-0"
         style="fill:#00d39b;fill-opacity:1;stroke:none;stroke-opacity:1" />
      <g
         transform="matrix(0.49999999,0,0,-1,-75.408288,763.36299)"
         id="g5466-0-4">
        <path
           sodipodi:type="star"
           style="fill:#000000;fill-opacity:1;stroke:none;stroke-opacity:1"
           id="path5292-1-8"
           sodipodi:sides="3"
           sodipodi:cx="442.9519"
           sodipodi:cy="655.40851"
           sodipodi:r1="26.623775"
           sodipodi:r2="13.311889"
           sodipodi:arg1="0.52359878"
           sodipodi:arg2="1.5707963"
           inkscape:flatsided="true"
           inkscape:rounded="0"
           inkscape:randomized="0"
           d="m 466.00877,668.7204 -46.11373,0 23.05686,-39.93567 z"
           inkscape:transform-center-y="-2.6666646"
           transform="matrix(0.69393648,0,0,0.4006444,180.57896,375.65681)" />
        <rect
           style="fill:#000000;fill-opacity:1;stroke:none;stroke-opacity:1"
           id="rect5294-2-7"
           width="16"
           height="33"
           x="479.95944"
           y="643.3335" />
      </g>
    </g>
    <g
       transform="translate(10.101527,349.8212)"
       id="g5492-7-9-7">
      <rect
         y="79.408295"
         x="152.57143"
         height="64"
         width="32"
         id="rect5243-1-0-9"
         style="fill:#00d39b;fill-opacity:1;stroke:none;stroke-opacity:1" />
      <g
         transform="matrix(0.49999999,0,0,-1,-75.408288,763.36299)"
         id="g5466-0-4-4">
        <path
           sodipodi:type="star"
           style="fill:#000000;fill-opacity:1;stroke:none;stroke-opacity:1"
           id="path5292-1-8-4"
           sodipodi:sides="3"
           sodipodi:cx="442.9519"
           sodipodi:cy="655.40851"
           sodipodi:r1="26.623775"
           sodipodi:r2="13.311889"
           sodipodi:arg1="0.52359878"
           sodipodi:arg2="1.5707963"
           inkscape:flatsided="true"
           inkscape:rounded="0"
           inkscape:randomized="0"
           d="m 466.00877,668.7204 -46.11373,0 23.05686,-39.93567 z"
           inkscape:transform-center-y="-2.6666646"
           transform="matrix(0.69393648,0,0,0.4006444,180.57896,375.65681)" />
        <rect
           style="fill:#000000;fill-opacity:1;stroke:none;stroke-opacity:1"
           id="rect5294-2-7-5"
           width="16"
           height="33"
           x="479.95944"
           y="643.3335" />
      </g>
    </g>
    <g
       transform="translate(10.101527,466.18221)"
       id="g5492-7-9-7-7">
      <rect
         y="79.408295"
         x="152.57143"
         height="64"
         width="32"
         id="rect5243-1-0-9-6"
         style="fill:#00d39b;fill-opacity:1;stroke:none;stroke-opacity:1" />
      <g
         transform="matrix(0.49999999,0,0,-1,-75.408288,763.36299)"
         id="g5466-0-4-4-4">
        <path
           sodipodi:type="star"
           style="fill:#000000;fill-opacity:1;stroke:none;stroke-opacity:1"
           id="path5292-1-8-4-4"
           sodipodi:sides="3"
           sodipodi:cx="442.9519"
           sodipodi:cy="655.40851"
           sodipodi:r1="26.623775"
           sodipodi:r2="13.311889"
           sodipodi:arg1="0.52359878"
           sodipodi:arg2="1.5707963"
           inkscape:flatsided="true"
           inkscape:rounded="0"
           inkscape:randomized="0"
           d="m 466.00877,668.7204 -46.11373,0 23.05686,-39.93567 z"
           inkscape:transform-center-y="-2.6666646"
           transform="matrix(0.69393648,0,0,0.4006444,180.57896,375.65681)" />
        <rect
           style="fill:#000000;fill-opacity:1;stroke:none;stroke-opacity:1"
           id="rect5294-2-7-5-1"
           width="16"
           height="33"
           x="479.95944"
           y="643.3335" />
      </g>
    </g>
    <g
       transform="matrix(-1,0,0,1,167.24439,73.811052)"
       id="g5492-2">
      <g
         id="g5692"
         transform="matrix(0,1,-1,0,270.69401,-72.591637)">
        <rect
           style="fill:#00d39b;fill-opacity:1;stroke:none;stroke-opacity:1"
           id="rect5243-34"
           width="32"
           height="64"
           x="152.57143"
           y="79.408295" />
        <g
           id="g5466-5"
           transform="matrix(0.49999999,0,0,-1,-75.408288,763.36299)">
          <path
             transform="matrix(0.69393648,0,0,0.4006444,180.57896,375.65681)"
             inkscape:transform-center-y="-2.6666646"
             d="m 466.00877,668.7204 -46.11373,0 23.05686,-39.93567 z"
             inkscape:randomized="0"
             inkscape:rounded="0"
             inkscape:flatsided="true"
             sodipodi:arg2="1.5707963"
             sodipodi:arg1="0.52359878"
             sodipodi:r2="13.311889"
             sodipodi:r1="26.623775"
             sodipodi:cy="655.40851"
             sodipodi:cx="442.9519"
             sodipodi:sides="3"
             id="path5292-2"
             style="fill:#000000;fill-opacity:1;stroke:none;stroke-opacity:1"
             sodipodi:type="star" />
          <rect
             y="643.3335"
             x="479.95944"
             height="33"
             width="16"
             id="rect5294-1"
             style="fill:#000000;fill-opacity:1;stroke:none;stroke-opacity:1" />
        </g>
      </g>
    </g>
    <g
       transform="matrix(-1,0,0,1,168.67296,306.9963)"
       id="g5492-2-4-6">
      <g
         id="g5692-5-1"
         transform="matrix(0,1,-1,0,270.69401,-72.591637)">
        <rect
           style="fill:#00d39b;fill-opacity:1;stroke:none;stroke-opacity:1"
           id="rect5243-34-4-3"
           width="32"
           height="64"
           x="152.57143"
           y="77.979721" />
        <g
           id="g5466-5-6-5"
           transform="matrix(0.49999999,0,0,-1,-75.408288,763.36299)">
          <path
             transform="matrix(0.69393648,0,0,0.4006444,180.57896,375.65681)"
             inkscape:transform-center-y="-2.6666646"
             d="m 466.00877,668.7204 -46.11373,0 23.05686,-39.93567 z"
             inkscape:randomized="0"
             inkscape:rounded="0"
             inkscape:flatsided="true"
             sodipodi:arg2="1.5707963"
             sodipodi:arg1="0.52359878"
             sodipodi:r2="13.311889"
             sodipodi:r1="26.623775"
             sodipodi:cy="655.40851"
             sodipodi:cx="442.9519"
             sodipodi:sides="3"
             id="path5292-2-7-0"
             style="fill:#000000;fill-opacity:1;stroke:none;stroke-opacity:1"
             sodipodi:type="star" />
          <rect
             y="643.3335"
             x="479.95944"
             height="33"
             width="16"
             id="rect5294-1-3-4"
             style="fill:#000000;fill-opacity:1;stroke:none;stroke-opacity:1" />
        </g>
      </g>
    </g>
    <g
       transform="matrix(-1,0,0,1,510.03334,190.44486)"
       id="g5492-2-1">
      <g
         id="g5692-6"
         transform="matrix(0,1,-1,0,270.69401,-72.591637)">
        <rect
           style="fill:#d39b00;fill-opacity:1;stroke:none;stroke-opacity:1"
           id="rect5243-34-9"
           width="32"
           height="64"
           x="152.57143"
           y="79.408295" />
        <g
           id="g5466-5-5"
           transform="matrix(0.49999999,0,0,-1,-75.408288,763.36299)">
          <path
             transform="matrix(0.69393648,0,0,0.4006444,180.57896,375.65681)"
             inkscape:transform-center-y="-2.6666646"
             d="m 466.00877,668.7204 -46.11373,0 23.05686,-39.93567 z"
             inkscape:randomized="0"
             inkscape:rounded="0"
             inkscape:flatsided="true"
             sodipodi:arg2="1.5707963"
             sodipodi:arg1="0.52359878"
             sodipodi:r2="13.311889"
             sodipodi:r1="26.623775"
             sodipodi:cy="655.40851"
             sodipodi:cx="442.9519"
             sodipodi:sides="3"
             id="path5292-2-2"
             style="fill:#000000;fill-opacity:1;stroke:none;stroke-opacity:1"
             sodipodi:type="star" />
          <rect
             y="643.3335"
             x="479.95944"
             height="33"
             width="16"
             id="rect5294-1-0"
             style="fill:#000000;fill-opacity:1;stroke:none;stroke-opacity:1" />
        </g>
      </g>
    </g>
    <g
       transform="matrix(-1,0,0,1,510.03334,306.9963)"
       id="g5492-2-1-4">
      <g
         id="g5692-6-3"
         transform="matrix(0,1,-1,0,270.69401,-72.591637)">
        <rect
           style="fill:#d39b00;fill-opacity:1;stroke:none;stroke-opacity:1"
           id="rect5243-34-9-9"
           width="32"
           height="64"
           x="152.57143"
           y="79.408295" />
        <g
           id="g5466-5-5-6"
           transform="matrix(0.49999999,0,0,-1,-75.408288,763.36299)">
          <path
             transform="matrix(0.69393648,0,0,0.4006444,180.57896,375.65681)"
             inkscape:transform-center-y="-2.6666646"
             d="m 466.00877,668.7204 -46.11373,0 23.05686,-39.93567 z"
             inkscape:randomized="0"
             inkscape:rounded="0"
             inkscape:flatsided="true"
             sodipodi:arg2="1.5707963"
             sodipodi:arg1="0.52359878"
             sodipodi:r2="13.311889"
             sodipodi:r1="26.623775"
             sodipodi:cy="655.40851"
             sodipodi:cx="442.9519"
             sodipodi:sides="3"
             id="path5292-2-2-3"
             style="fill:#000000;fill-opacity:1;stroke:none;stroke-opacity:1"
             sodipodi:type="star" />
          <rect
             y="643.3335"
             x="479.95944"
             height="33"
             width="16"
             id="rect5294-1-0-8"
             style="fill:#000000;fill-opacity:1;stroke:none;stroke-opacity:1" />
        </g>
      </g>
    </g>
    <g
       transform="matrix(-1,0,0,1,510.03334,423.9539)"
       id="g5492-2-1-4-4">
      <g
         id="g5692-6-3-7"
         transform="matrix(0,1,-1,0,270.69401,-72.591637)">
        <rect
           style="fill:#d39b00;fill-opacity:1;stroke:none;stroke-opacity:1"
           id="rect5243-34-9-9-2"
           width="32"
           height="64"
           x="152.57143"
           y="79.408295" />
        <g
           id="g5466-5-5-6-1"
           transform="matrix(0.49999999,0,0,-1,-75.408288,763.36299)">
          <path
             transform="matrix(0.69393648,0,0,0.4006444,180.57896,375.65681)"
             inkscape:transform-center-y="-2.6666646"
             d="m 466.00877,668.7204 -46.11373,0 23.05686,-39.93567 z"
             inkscape:randomized="0"
             inkscape:rounded="0"
             inkscape:flatsided="true"
             sodipodi:arg2="1.5707963"
             sodipodi:arg1="0.52359878"
             sodipodi:r2="13.311889"
             sodipodi:r1="26.623775"
             sodipodi:cy="655.40851"
             sodipodi:cx="442.9519"
             sodipodi:sides="3"
             id="path5292-2-2-3-5"
             style="fill:#000000;fill-opacity:1;stroke:none;stroke-opacity:1"
             sodipodi:type="star" />
          <rect
             y="643.3335"
             x="479.95944"
             height="33"
             width="16"
             id="rect5294-1-0-8-4"
             style="fill:#000000;fill-opacity:1;stroke:none;stroke-opacity:1" />
        </g>
      </g>
    </g>
    <g
       transform="matrix(-1,0,0,1,167.24439,423.9539)"
       id="g5492-2-8">
      <g
         id="g5692-1"
         transform="matrix(0,1,-1,0,270.69401,-72.591637)">
        <rect
           style="fill:#00d39b;fill-opacity:1;stroke:none;stroke-opacity:1"
           id="rect5243-34-6"
           width="32"
           height="64"
           x="152.57143"
           y="79.408295" />
        <g
           id="g5466-5-9"
           transform="matrix(0.49999999,0,0,-1,-75.408288,763.36299)">
          <path
             transform="matrix(0.69393648,0,0,0.4006444,180.57896,375.65681)"
             inkscape:transform-center-y="-2.6666646"
             d="m 466.00877,668.7204 -46.11373,0 23.05686,-39.93567 z"
             inkscape:randomized="0"
             inkscape:rounded="0"
             inkscape:flatsided="true"
             sodipodi:arg2="1.5707963"
             sodipodi:arg1="0.52359878"
             sodipodi:r2="13.311889"
             sodipodi:r1="26.623775"
             sodipodi:cy="655.40851"
             sodipodi:cx="442.9519"
             sodipodi:sides="3"
             id="path5292-2-6"
             style="fill:#000000;fill-opacity:1;stroke:none;stroke-opacity:1"
             sodipodi:type="star" />
          <rect
             y="643.3335"
             x="479.95944"
             height="33"
             width="16"
             id="rect5294-1-5"
             style="fill:#000000;fill-opacity:1;stroke:none;stroke-opacity:1" />
        </g>
      </g>
    </g>
    <g
       transform="matrix(0,-1,1,0,-259.36918,504.184)"
       id="g5492-2-4-9">
      <g
         id="g5692-5-7"
         transform="matrix(0,1,-1,0,270.69401,-72.591637)">
        <rect
           style="fill:#00d39b;fill-opacity:1;stroke:none;stroke-opacity:1"
           id="rect5243-34-4-0"
           width="32"
           height="64"
           x="152.57143"
           y="79.408295" />
        <g
           id="g5466-5-6-8"
           transform="matrix(0.49999999,0,0,-1,-75.408288,763.36299)">
          <path
             transform="matrix(0.69393648,0,0,0.4006444,180.57896,375.65681)"
             inkscape:transform-center-y="-2.6666646"
             d="m 466.00877,668.7204 -46.11373,0 23.05686,-39.93567 z"
             inkscape:randomized="0"
             inkscape:rounded="0"
             inkscape:flatsided="true"
             sodipodi:arg2="1.5707963"
             sodipodi:arg1="0.52359878"
             sodipodi:r2="13.311889"
             sodipodi:r1="26.623775"
             sodipodi:cy="655.40851"
             sodipodi:cx="442.9519"
             sodipodi:sides="3"
             id="path5292-2-7-4"
             style="fill:#000000;fill-opacity:1;stroke:none;stroke-opacity:1"
             sodipodi:type="star" />
          <rect
             y="643.3335"
             x="479.95944"
             height="33"
             width="16"
             id="rect5294-1-3-7"
             style="fill:#000000;fill-opacity:1;stroke:none;stroke-opacity:1" />
        </g>
      </g>
    </g>
    <g
       transform="matrix(-1,0,0,1,5.8776664,116.49886)"
       id="g4937">
      <g
         id="g5492-2-8-6"
         transform="matrix(-1,0,0,1,157.14285,248.9185)">
        <g
           transform="matrix(0,1,-1,0,270.69401,-72.591637)"
           id="g5692-1-6">
          <rect
             y="79.408295"
             x="152.57143"
             height="64"
             width="32"
             id="rect5243-34-6-5"
             style="fill:#00d39b;fill-opacity:1;stroke:none;stroke-opacity:1" />
          <g
             transform="matrix(0.49999999,0,0,-1,-75.408288,763.36299)"
             id="g5466-5-9-2">
            <path
               sodipodi:type="star"
               style="fill:#000000;fill-opacity:1;stroke:none;stroke-opacity:1"
               id="path5292-2-6-5"
               sodipodi:sides="3"
               sodipodi:cx="442.9519"
               sodipodi:cy="655.40851"
               sodipodi:r1="26.623775"
               sodipodi:r2="13.311889"
               sodipodi:arg1="0.52359878"
               sodipodi:arg2="1.5707963"
               inkscape:flatsided="true"
               inkscape:rounded="0"
               inkscape:randomized="0"
               d="m 466.00877,668.7204 -46.11373,0 23.05686,-39.93567 z"
               inkscape:transform-center-y="-2.6666646"
               transform="matrix(0.69393648,0,0,0.4006444,180.57896,375.65681)" />
            <rect
               style="fill:#000000;fill-opacity:1;stroke:none;stroke-opacity:1"
               id="rect5294-1-5-8"
               width="16"
               height="33"
               x="479.95944"
               y="643.3335" />
          </g>
        </g>
      </g>
      <g
         id="g5492-2-8-6-6"
         transform="matrix(-1.0394591,0,0,1,100.94082,248.9185)">
        <g
           transform="matrix(0,1,-1,0,270.69401,-72.591637)"
           id="g5692-1-6-8">
          <rect
             y="79.408295"
             x="152.57143"
             height="64"
             width="32"
             id="rect5243-34-6-5-1"
             style="fill:#00d39b;fill-opacity:1;stroke:none;stroke-opacity:1" />
          <g
             transform="matrix(0.49999999,0,0,-1,-75.408288,763.36299)"
             id="g5466-5-9-2-5" />
        </g>
      </g>
      <g
         id="g5492-2-8-6-6-9"
         transform="matrix(-1.0355132,0,0,1,225.5369,248.9185)">
        <g
           transform="matrix(0,1,-1,0,270.69401,-72.591637)"
           id="g5692-1-6-8-6">
          <rect
             y="79.408295"
             x="152.57143"
             height="64"
             width="32"
             id="rect5243-34-6-5-1-2"
             style="fill:#00d39b;fill-opacity:1;stroke:none;stroke-opacity:1" />
          <g
             transform="matrix(0.49999999,0,0,-1,-75.408288,763.36299)"
             id="g5466-5-9-2-5-1" />
        </g>
      </g>
      <g
         id="g5492-2-8-6-6-95"
         transform="matrix(0,-0.31361607,-1,0,14.086932,372.82907)">
        <g
           transform="matrix(0,1,-1,0,270.69401,-72.591637)"
           id="g5692-1-6-8-2">
          <rect
             y="79.408295"
             x="152.57143"
             height="64"
             width="32"
             id="rect5243-34-6-5-1-1"
             style="fill:#00d39b;fill-opacity:1;stroke:none;stroke-opacity:1" />
          <g
             transform="matrix(0.49999999,0,0,-1,-75.408288,763.36299)"
             id="g5466-5-9-2-5-17" />
        </g>
      </g>
      <g
         id="g5492-2-8-6-6-95-9"
         transform="matrix(0,-0.31361607,-1,0,173.71065,416.92826)">
        <g
           transform="matrix(0,1,-1,0,270.69401,-72.591637)"
           id="g5692-1-6-8-2-0">
          <rect
             y="79.408295"
             x="152.57143"
             height="64"
             width="32"
             id="rect5243-34-6-5-1-1-6"
             style="fill:#00d39b;fill-opacity:1;stroke:none;stroke-opacity:1" />
          <g
             transform="matrix(0.49999999,0,0,-1,-75.408288,763.36299)"
             id="g5466-5-9-2-5-17-8" />
        </g>
      </g>
    </g>
  </g>
</svg>
